{
  "images" : [
    {
      "idiom" : "universal",
      "filename" : "d127e2250daf2f03d28ce16a6d56b229.jpg",
      "scale" : "1x"
    },
    {
      "idiom" : "universal",
      "scale" : "2x"
    },
    {
      "idiom" : "universal",
      "scale" : "3x"
    }
  ],
  "info" : {
    "version" : 1,
    "author" : "xcode"
  }
}